{
  "name": "Unnamed Project 2018-12-19",
  "team": {
    "name": "Project Team",
    "members": [
      {
        "name": "Dude",
        "uuid": "8e83d7cf-0734-4c0d-9208-45a347a29d83",
        "SALARY_PER_HOUR": 5000.0,
        "timeSpent": {
          "seconds": 0,
          "nanos": 0
        }
      },
      {
        "name": "Her Dudessness",
        "uuid": "915cac3d-9337-4c08-9612-1c077a9586d0",
        "SALARY_PER_HOUR": 0.0,
        "timeSpent": {
          "seconds": 0,
          "nanos": 0
        }
      },
      {
        "name": "The dude",
        "uuid": "36e05c01-2083-47e5-b9b1-06e85987c7b8",
        "SALARY_PER_HOUR": 500.0,
        "timeSpent": {
          "seconds": 0,
          "nanos": 0
        }
      }
    ]
  },
  "riskMatrix": {
    "risks": [
      {
        "riskName": "Death",
        "probability": "VERY_LIKELY",
        "impact": "VERY_HIGH"
      }
    ],
    "lineSeparator": "\n"
  },
  "schedule": {
    "LAST_WEEK_OF_YEAR": 52,
    "activities": [
      {
        "startWeek": 12,
        "endWeek": 18,
        "endYear": 2019,
        "startYear": 2019,
        "name": "Test Activity",
        "team": {
          "name": "Team 1",
          "members": [
            {
              "name": "Dude",
              "uuid": "8e83d7cf-0734-4c0d-9208-45a347a29d83",
              "SALARY_PER_HOUR": 5000.0,
              "timeSpent": {
                "seconds": 0,
                "nanos": 0
              }
            }
          ]
        },
        "costOfWorkScheduled": 700000.0,
        "costOfWorkPerformed": 0.0,
        "percentCompleted": 0.0,
        "timeSpent": {}
      }
    ],
    "start": {
      "date": {
        "year": 2018,
        "month": 11,
        "day": 26
      },
      "time": {
        "hour": 8,
        "minute": 0,
        "second": 0,
        "nano": 0
      }
    },
    "end": {
      "date": {
        "year": 2019,
        "month": 1,
        "day": 18
      },
      "time": {
        "hour": 17,
        "minute": 0,
        "second": 0,
        "nano": 0
      }
    }
  },
  "file": {
    "path": "/home/konrad/IdeaProjects/dit092-project-managment-tool/./broject.json"
  }
}